##    //Register File initialization. $Register Name$Contents
$R2$600
$R3$800
##  // Memory initialization. $Memory Location$ Value
$600$55
$800$44
##  // Assembly Code
LD R4 R0[R2]
LD R5 R0[R3]
ADD R6 R4 R4
ADD R7 R5 R5
SD R0[R2] R7
SD R0[R3] R6
HLT
