0000 : 1000 0100
0001 : 0000 0010
0002 : 1000 0101
0003 : 0000 0011
0004 : 0000 0110
0005 : 0100 0100
0006 : 0000 0111
0007 : 0101 0101
0008 : 1010 0000
0009 : 0010 0111
0010 : 1010 0000
0011 : 0011 0110
0012 : 1110 0000
0013 : 0000 0000
0014 : 0000 0000
0015 : 0000 0000
0016 : 0000 0000
0017 : 0000 0000
0018 : 0000 0000
0019 : 0000 0000
0020 : 0000 0000
0021 : 0000 0000
0022 : 0000 0000
0023 : 0000 0000
0024 : 0000 0000
0025 : 0000 0000
0026 : 0000 0000
0027 : 0000 0000
0028 : 0000 0000
0029 : 0000 0000
0030 : 0000 0000
0031 : 0000 0000
0032 : 0000 0000
0033 : 0000 0000
0034 : 0000 0000
0035 : 0000 0000
0036 : 0000 0000
0037 : 0000 0000
0038 : 0000 0000
0039 : 0000 0000
0040 : 0000 0000
0041 : 0000 0000
0042 : 0000 0000
0043 : 0000 0000
0044 : 0000 0000
0045 : 0000 0000
0046 : 0000 0000
0047 : 0000 0000
0048 : 0000 0000
0049 : 0000 0000
0050 : 0000 0000
0051 : 0000 0000
0052 : 0000 0000
0053 : 0000 0000
0054 : 0000 0000
0055 : 0000 0000
0056 : 0000 0000
0057 : 0000 0000
0058 : 0000 0000
0059 : 0000 0000
0060 : 0000 0000
0061 : 0000 0000
0062 : 0000 0000
0063 : 0000 0000
0064 : 0000 0000
0065 : 0000 0000
0066 : 0000 0000
0067 : 0000 0000
0068 : 0000 0000
0069 : 0000 0000
0070 : 0000 0000
0071 : 0000 0000
0072 : 0000 0000
0073 : 0000 0000
0074 : 0000 0000
0075 : 0000 0000
0076 : 0000 0000
0077 : 0000 0000
0078 : 0000 0000
0079 : 0000 0000
0080 : 0000 0000
0081 : 0000 0000
0082 : 0000 0000
0083 : 0000 0000
0084 : 0000 0000
0085 : 0000 0000
0086 : 0000 0000
0087 : 0000 0000
0088 : 0000 0000
0089 : 0000 0000
0090 : 0000 0000
0091 : 0000 0000
0092 : 0000 0000
0093 : 0000 0000
0094 : 0000 0000
0095 : 0000 0000
0096 : 0000 0000
0097 : 0000 0000
0098 : 0000 0000
0099 : 0000 0000
0100 : 0000 0000
0101 : 0000 0000
0102 : 0000 0000
0103 : 0000 0000
0104 : 0000 0000
0105 : 0000 0000
0106 : 0000 0000
0107 : 0000 0000
0108 : 0000 0000
0109 : 0000 0000
0110 : 0000 0000
0111 : 0000 0000
0112 : 0000 0000
0113 : 0000 0000
0114 : 0000 0000
0115 : 0000 0000
0116 : 0000 0000
0117 : 0000 0000
0118 : 0000 0000
0119 : 0000 0000
0120 : 0000 0000
0121 : 0000 0000
0122 : 0000 0000
0123 : 0000 0000
0124 : 0000 0000
0125 : 0000 0000
0126 : 0000 0000
0127 : 0000 0000
0128 : 0000 0000
0129 : 0000 0000
0130 : 0000 0000
0131 : 0000 0000
0132 : 0000 0000
0133 : 0000 0000
0134 : 0000 0000
0135 : 0000 0000
0136 : 0000 0000
0137 : 0000 0000
0138 : 0000 0000
0139 : 0000 0000
0140 : 0000 0000
0141 : 0000 0000
0142 : 0000 0000
0143 : 0000 0000
0144 : 0000 0000
0145 : 0000 0000
0146 : 0000 0000
0147 : 0000 0000
0148 : 0000 0000
0149 : 0000 0000
0150 : 0000 0000
0151 : 0000 0000
0152 : 0000 0000
0153 : 0000 0000
0154 : 0000 0000
0155 : 0000 0000
0156 : 0000 0000
0157 : 0000 0000
0158 : 0000 0000
0159 : 0000 0000
0160 : 0000 0000
0161 : 0000 0000
0162 : 0000 0000
0163 : 0000 0000
0164 : 0000 0000
0165 : 0000 0000
0166 : 0000 0000
0167 : 0000 0000
0168 : 0000 0000
0169 : 0000 0000
0170 : 0000 0000
0171 : 0000 0000
0172 : 0000 0000
0173 : 0000 0000
0174 : 0000 0000
0175 : 0000 0000
0176 : 0000 0000
0177 : 0000 0000
0178 : 0000 0000
0179 : 0000 0000
0180 : 0000 0000
0181 : 0000 0000
0182 : 0000 0000
0183 : 0000 0000
0184 : 0000 0000
0185 : 0000 0000
0186 : 0000 0000
0187 : 0000 0000
0188 : 0000 0000
0189 : 0000 0000
0190 : 0000 0000
0191 : 0000 0000
0192 : 0000 0000
0193 : 0000 0000
0194 : 0000 0000
0195 : 0000 0000
0196 : 0000 0000
0197 : 0000 0000
0198 : 0000 0000
0199 : 0000 0000
0200 : 0000 0000
0201 : 0000 0000
0202 : 0000 0000
0203 : 0000 0000
0204 : 0000 0000
0205 : 0000 0000
0206 : 0000 0000
0207 : 0000 0000
0208 : 0000 0000
0209 : 0000 0000
0210 : 0000 0000
0211 : 0000 0000
0212 : 0000 0000
0213 : 0000 0000
0214 : 0000 0000
0215 : 0000 0000
0216 : 0000 0000
0217 : 0000 0000
0218 : 0000 0000
0219 : 0000 0000
0220 : 0000 0000
0221 : 0000 0000
0222 : 0000 0000
0223 : 0000 0000
0224 : 0000 0000
0225 : 0000 0000
0226 : 0000 0000
0227 : 0000 0000
0228 : 0000 0000
0229 : 0000 0000
0230 : 0000 0000
0231 : 0000 0000
0232 : 0000 0000
0233 : 0000 0000
0234 : 0000 0000
0235 : 0000 0000
0236 : 0000 0000
0237 : 0000 0000
0238 : 0000 0000
0239 : 0000 0000
0240 : 0000 0000
0241 : 0000 0000
0242 : 0000 0000
0243 : 0000 0000
0244 : 0000 0000
0245 : 0000 0000
0246 : 0000 0000
0247 : 0000 0000
0248 : 0000 0000
0249 : 0000 0000
0250 : 0000 0000
0251 : 0000 0000
0252 : 0000 0000
0253 : 0000 0000
0254 : 0000 0000
0255 : 0000 0000
0256 : 0000 0000
0257 : 0000 0000
0258 : 0000 0000
0259 : 0000 0000
0260 : 0000 0000
0261 : 0000 0000
0262 : 0000 0000
0263 : 0000 0000
0264 : 0000 0000
0265 : 0000 0000
0266 : 0000 0000
0267 : 0000 0000
0268 : 0000 0000
0269 : 0000 0000
0270 : 0000 0000
0271 : 0000 0000
0272 : 0000 0000
0273 : 0000 0000
0274 : 0000 0000
0275 : 0000 0000
0276 : 0000 0000
0277 : 0000 0000
0278 : 0000 0000
0279 : 0000 0000
0280 : 0000 0000
0281 : 0000 0000
0282 : 0000 0000
0283 : 0000 0000
0284 : 0000 0000
0285 : 0000 0000
0286 : 0000 0000
0287 : 0000 0000
0288 : 0000 0000
0289 : 0000 0000
0290 : 0000 0000
0291 : 0000 0000
0292 : 0000 0000
0293 : 0000 0000
0294 : 0000 0000
0295 : 0000 0000
0296 : 0000 0000
0297 : 0000 0000
0298 : 0000 0000
0299 : 0000 0000
0300 : 0000 0000
0301 : 0000 0000
0302 : 0000 0000
0303 : 0000 0000
0304 : 0000 0000
0305 : 0000 0000
0306 : 0000 0000
0307 : 0000 0000
0308 : 0000 0000
0309 : 0000 0000
0310 : 0000 0000
0311 : 0000 0000
0312 : 0000 0000
0313 : 0000 0000
0314 : 0000 0000
0315 : 0000 0000
0316 : 0000 0000
0317 : 0000 0000
0318 : 0000 0000
0319 : 0000 0000
0320 : 0000 0000
0321 : 0000 0000
0322 : 0000 0000
0323 : 0000 0000
0324 : 0000 0000
0325 : 0000 0000
0326 : 0000 0000
0327 : 0000 0000
0328 : 0000 0000
0329 : 0000 0000
0330 : 0000 0000
0331 : 0000 0000
0332 : 0000 0000
0333 : 0000 0000
0334 : 0000 0000
0335 : 0000 0000
0336 : 0000 0000
0337 : 0000 0000
0338 : 0000 0000
0339 : 0000 0000
0340 : 0000 0000
0341 : 0000 0000
0342 : 0000 0000
0343 : 0000 0000
0344 : 0000 0000
0345 : 0000 0000
0346 : 0000 0000
0347 : 0000 0000
0348 : 0000 0000
0349 : 0000 0000
0350 : 0000 0000
0351 : 0000 0000
0352 : 0000 0000
0353 : 0000 0000
0354 : 0000 0000
0355 : 0000 0000
0356 : 0000 0000
0357 : 0000 0000
0358 : 0000 0000
0359 : 0000 0000
0360 : 0000 0000
0361 : 0000 0000
0362 : 0000 0000
0363 : 0000 0000
0364 : 0000 0000
0365 : 0000 0000
0366 : 0000 0000
0367 : 0000 0000
0368 : 0000 0000
0369 : 0000 0000
0370 : 0000 0000
0371 : 0000 0000
0372 : 0000 0000
0373 : 0000 0000
0374 : 0000 0000
0375 : 0000 0000
0376 : 0000 0000
0377 : 0000 0000
0378 : 0000 0000
0379 : 0000 0000
0380 : 0000 0000
0381 : 0000 0000
0382 : 0000 0000
0383 : 0000 0000
0384 : 0000 0000
0385 : 0000 0000
0386 : 0000 0000
0387 : 0000 0000
0388 : 0000 0000
0389 : 0000 0000
0390 : 0000 0000
0391 : 0000 0000
0392 : 0000 0000
0393 : 0000 0000
0394 : 0000 0000
0395 : 0000 0000
0396 : 0000 0000
0397 : 0000 0000
0398 : 0000 0000
0399 : 0000 0000
0400 : 0000 0000
0401 : 0000 0000
0402 : 0000 0000
0403 : 0000 0000
0404 : 0000 0000
0405 : 0000 0000
0406 : 0000 0000
0407 : 0000 0000
0408 : 0000 0000
0409 : 0000 0000
0410 : 0000 0000
0411 : 0000 0000
0412 : 0000 0000
0413 : 0000 0000
0414 : 0000 0000
0415 : 0000 0000
0416 : 0000 0000
0417 : 0000 0000
0418 : 0000 0000
0419 : 0000 0000
0420 : 0000 0000
0421 : 0000 0000
0422 : 0000 0000
0423 : 0000 0000
0424 : 0000 0000
0425 : 0000 0000
0426 : 0000 0000
0427 : 0000 0000
0428 : 0000 0000
0429 : 0000 0000
0430 : 0000 0000
0431 : 0000 0000
0432 : 0000 0000
0433 : 0000 0000
0434 : 0000 0000
0435 : 0000 0000
0436 : 0000 0000
0437 : 0000 0000
0438 : 0000 0000
0439 : 0000 0000
0440 : 0000 0000
0441 : 0000 0000
0442 : 0000 0000
0443 : 0000 0000
0444 : 0000 0000
0445 : 0000 0000
0446 : 0000 0000
0447 : 0000 0000
0448 : 0000 0000
0449 : 0000 0000
0450 : 0000 0000
0451 : 0000 0000
0452 : 0000 0000
0453 : 0000 0000
0454 : 0000 0000
0455 : 0000 0000
0456 : 0000 0000
0457 : 0000 0000
0458 : 0000 0000
0459 : 0000 0000
0460 : 0000 0000
0461 : 0000 0000
0462 : 0000 0000
0463 : 0000 0000
0464 : 0000 0000
0465 : 0000 0000
0466 : 0000 0000
0467 : 0000 0000
0468 : 0000 0000
0469 : 0000 0000
0470 : 0000 0000
0471 : 0000 0000
0472 : 0000 0000
0473 : 0000 0000
0474 : 0000 0000
0475 : 0000 0000
0476 : 0000 0000
0477 : 0000 0000
0478 : 0000 0000
0479 : 0000 0000
0480 : 0000 0000
0481 : 0000 0000
0482 : 0000 0000
0483 : 0000 0000
0484 : 0000 0000
0485 : 0000 0000
0486 : 0000 0000
0487 : 0000 0000
0488 : 0000 0000
0489 : 0000 0000
0490 : 0000 0000
0491 : 0000 0000
0492 : 0000 0000
0493 : 0000 0000
0494 : 0000 0000
0495 : 0000 0000
0496 : 0000 0000
0497 : 0000 0000
0498 : 0000 0000
0499 : 0000 0000
0500 : 0000 0000
0501 : 0000 0000
0502 : 0000 0000
0503 : 0000 0000
0504 : 0000 0000
0505 : 0000 0000
0506 : 0000 0000
0507 : 0000 0000
0508 : 0000 0000
0509 : 0000 0000
0510 : 0000 0000
0511 : 0000 0000
0512 : 0000 0000
0513 : 0000 0000
0514 : 0000 0000
0515 : 0000 0000
0516 : 0000 0000
0517 : 0000 0000
0518 : 0000 0000
0519 : 0000 0000
0520 : 0000 0000
0521 : 0000 0000
0522 : 0000 0000
0523 : 0000 0000
0524 : 0000 0000
0525 : 0000 0000
0526 : 0000 0000
0527 : 0000 0000
0528 : 0000 0000
0529 : 0000 0000
0530 : 0000 0000
0531 : 0000 0000
0532 : 0000 0000
0533 : 0000 0000
0534 : 0000 0000
0535 : 0000 0000
0536 : 0000 0000
0537 : 0000 0000
0538 : 0000 0000
0539 : 0000 0000
0540 : 0000 0000
0541 : 0000 0000
0542 : 0000 0000
0543 : 0000 0000
0544 : 0000 0000
0545 : 0000 0000
0546 : 0000 0000
0547 : 0000 0000
0548 : 0000 0000
0549 : 0000 0000
0550 : 0000 0000
0551 : 0000 0000
0552 : 0000 0000
0553 : 0000 0000
0554 : 0000 0000
0555 : 0000 0000
0556 : 0000 0000
0557 : 0000 0000
0558 : 0000 0000
0559 : 0000 0000
0560 : 0000 0000
0561 : 0000 0000
0562 : 0000 0000
0563 : 0000 0000
0564 : 0000 0000
0565 : 0000 0000
0566 : 0000 0000
0567 : 0000 0000
0568 : 0000 0000
0569 : 0000 0000
0570 : 0000 0000
0571 : 0000 0000
0572 : 0000 0000
0573 : 0000 0000
0574 : 0000 0000
0575 : 0000 0000
0576 : 0000 0000
0577 : 0000 0000
0578 : 0000 0000
0579 : 0000 0000
0580 : 0000 0000
0581 : 0000 0000
0582 : 0000 0000
0583 : 0000 0000
0584 : 0000 0000
0585 : 0000 0000
0586 : 0000 0000
0587 : 0000 0000
0588 : 0000 0000
0589 : 0000 0000
0590 : 0000 0000
0591 : 0000 0000
0592 : 0000 0000
0593 : 0000 0000
0594 : 0000 0000
0595 : 0000 0000
0596 : 0000 0000
0597 : 0000 0000
0598 : 0000 0000
0599 : 0000 0000
0600 : 0000 0000
0601 : 0101 1000
0602 : 0000 0000
0603 : 0000 0000
0604 : 0000 0000
0605 : 0000 0000
0606 : 0000 0000
0607 : 0000 0000
0608 : 0000 0000
0609 : 0000 0000
0610 : 0000 0000
0611 : 0000 0000
0612 : 0000 0000
0613 : 0000 0000
0614 : 0000 0000
0615 : 0000 0000
0616 : 0000 0000
0617 : 0000 0000
0618 : 0000 0000
0619 : 0000 0000
0620 : 0000 0000
0621 : 0000 0000
0622 : 0000 0000
0623 : 0000 0000
0624 : 0000 0000
0625 : 0000 0000
0626 : 0000 0000
0627 : 0000 0000
0628 : 0000 0000
0629 : 0000 0000
0630 : 0000 0000
0631 : 0000 0000
0632 : 0000 0000
0633 : 0000 0000
0634 : 0000 0000
0635 : 0000 0000
0636 : 0000 0000
0637 : 0000 0000
0638 : 0000 0000
0639 : 0000 0000
0640 : 0000 0000
0641 : 0000 0000
0642 : 0000 0000
0643 : 0000 0000
0644 : 0000 0000
0645 : 0000 0000
0646 : 0000 0000
0647 : 0000 0000
0648 : 0000 0000
0649 : 0000 0000
0650 : 0000 0000
0651 : 0000 0000
0652 : 0000 0000
0653 : 0000 0000
0654 : 0000 0000
0655 : 0000 0000
0656 : 0000 0000
0657 : 0000 0000
0658 : 0000 0000
0659 : 0000 0000
0660 : 0000 0000
0661 : 0000 0000
0662 : 0000 0000
0663 : 0000 0000
0664 : 0000 0000
0665 : 0000 0000
0666 : 0000 0000
0667 : 0000 0000
0668 : 0000 0000
0669 : 0000 0000
0670 : 0000 0000
0671 : 0000 0000
0672 : 0000 0000
0673 : 0000 0000
0674 : 0000 0000
0675 : 0000 0000
0676 : 0000 0000
0677 : 0000 0000
0678 : 0000 0000
0679 : 0000 0000
0680 : 0000 0000
0681 : 0000 0000
0682 : 0000 0000
0683 : 0000 0000
0684 : 0000 0000
0685 : 0000 0000
0686 : 0000 0000
0687 : 0000 0000
0688 : 0000 0000
0689 : 0000 0000
0690 : 0000 0000
0691 : 0000 0000
0692 : 0000 0000
0693 : 0000 0000
0694 : 0000 0000
0695 : 0000 0000
0696 : 0000 0000
0697 : 0000 0000
0698 : 0000 0000
0699 : 0000 0000
0700 : 0000 0000
0701 : 0000 0000
0702 : 0000 0000
0703 : 0000 0000
0704 : 0000 0000
0705 : 0000 0000
0706 : 0000 0000
0707 : 0000 0000
0708 : 0000 0000
0709 : 0000 0000
0710 : 0000 0000
0711 : 0000 0000
0712 : 0000 0000
0713 : 0000 0000
0714 : 0000 0000
0715 : 0000 0000
0716 : 0000 0000
0717 : 0000 0000
0718 : 0000 0000
0719 : 0000 0000
0720 : 0000 0000
0721 : 0000 0000
0722 : 0000 0000
0723 : 0000 0000
0724 : 0000 0000
0725 : 0000 0000
0726 : 0000 0000
0727 : 0000 0000
0728 : 0000 0000
0729 : 0000 0000
0730 : 0000 0000
0731 : 0000 0000
0732 : 0000 0000
0733 : 0000 0000
0734 : 0000 0000
0735 : 0000 0000
0736 : 0000 0000
0737 : 0000 0000
0738 : 0000 0000
0739 : 0000 0000
0740 : 0000 0000
0741 : 0000 0000
0742 : 0000 0000
0743 : 0000 0000
0744 : 0000 0000
0745 : 0000 0000
0746 : 0000 0000
0747 : 0000 0000
0748 : 0000 0000
0749 : 0000 0000
0750 : 0000 0000
0751 : 0000 0000
0752 : 0000 0000
0753 : 0000 0000
0754 : 0000 0000
0755 : 0000 0000
0756 : 0000 0000
0757 : 0000 0000
0758 : 0000 0000
0759 : 0000 0000
0760 : 0000 0000
0761 : 0000 0000
0762 : 0000 0000
0763 : 0000 0000
0764 : 0000 0000
0765 : 0000 0000
0766 : 0000 0000
0767 : 0000 0000
0768 : 0000 0000
0769 : 0000 0000
0770 : 0000 0000
0771 : 0000 0000
0772 : 0000 0000
0773 : 0000 0000
0774 : 0000 0000
0775 : 0000 0000
0776 : 0000 0000
0777 : 0000 0000
0778 : 0000 0000
0779 : 0000 0000
0780 : 0000 0000
0781 : 0000 0000
0782 : 0000 0000
0783 : 0000 0000
0784 : 0000 0000
0785 : 0000 0000
0786 : 0000 0000
0787 : 0000 0000
0788 : 0000 0000
0789 : 0000 0000
0790 : 0000 0000
0791 : 0000 0000
0792 : 0000 0000
0793 : 0000 0000
0794 : 0000 0000
0795 : 0000 0000
0796 : 0000 0000
0797 : 0000 0000
0798 : 0000 0000
0799 : 0000 0000
0800 : 0000 0000
0801 : 0110 1110
0802 : 0000 0000
0803 : 0000 0000
0804 : 0000 0000
0805 : 0000 0000
0806 : 0000 0000
0807 : 0000 0000
0808 : 0000 0000
0809 : 0000 0000
0810 : 0000 0000
0811 : 0000 0000
0812 : 0000 0000
0813 : 0000 0000
0814 : 0000 0000
0815 : 0000 0000
0816 : 0000 0000
0817 : 0000 0000
0818 : 0000 0000
0819 : 0000 0000
0820 : 0000 0000
0821 : 0000 0000
0822 : 0000 0000
0823 : 0000 0000
0824 : 0000 0000
0825 : 0000 0000
0826 : 0000 0000
0827 : 0000 0000
0828 : 0000 0000
0829 : 0000 0000
0830 : 0000 0000
0831 : 0000 0000
0832 : 0000 0000
0833 : 0000 0000
0834 : 0000 0000
0835 : 0000 0000
0836 : 0000 0000
0837 : 0000 0000
0838 : 0000 0000
0839 : 0000 0000
0840 : 0000 0000
0841 : 0000 0000
0842 : 0000 0000
0843 : 0000 0000
0844 : 0000 0000
0845 : 0000 0000
0846 : 0000 0000
0847 : 0000 0000
0848 : 0000 0000
0849 : 0000 0000
0850 : 0000 0000
0851 : 0000 0000
0852 : 0000 0000
0853 : 0000 0000
0854 : 0000 0000
0855 : 0000 0000
0856 : 0000 0000
0857 : 0000 0000
0858 : 0000 0000
0859 : 0000 0000
0860 : 0000 0000
0861 : 0000 0000
0862 : 0000 0000
0863 : 0000 0000
0864 : 0000 0000
0865 : 0000 0000
0866 : 0000 0000
0867 : 0000 0000
0868 : 0000 0000
0869 : 0000 0000
0870 : 0000 0000
0871 : 0000 0000
0872 : 0000 0000
0873 : 0000 0000
0874 : 0000 0000
0875 : 0000 0000
0876 : 0000 0000
0877 : 0000 0000
0878 : 0000 0000
0879 : 0000 0000
0880 : 0000 0000
0881 : 0000 0000
0882 : 0000 0000
0883 : 0000 0000
0884 : 0000 0000
0885 : 0000 0000
0886 : 0000 0000
0887 : 0000 0000
0888 : 0000 0000
0889 : 0000 0000
0890 : 0000 0000
0891 : 0000 0000
0892 : 0000 0000
0893 : 0000 0000
0894 : 0000 0000
0895 : 0000 0000
0896 : 0000 0000
0897 : 0000 0000
0898 : 0000 0000
0899 : 0000 0000
0900 : 0000 0000
0901 : 0000 0000
0902 : 0000 0000
0903 : 0000 0000
0904 : 0000 0000
0905 : 0000 0000
0906 : 0000 0000
0907 : 0000 0000
0908 : 0000 0000
0909 : 0000 0000
0910 : 0000 0000
0911 : 0000 0000
0912 : 0000 0000
0913 : 0000 0000
0914 : 0000 0000
0915 : 0000 0000
0916 : 0000 0000
0917 : 0000 0000
0918 : 0000 0000
0919 : 0000 0000
0920 : 0000 0000
0921 : 0000 0000
0922 : 0000 0000
0923 : 0000 0000
0924 : 0000 0000
0925 : 0000 0000
0926 : 0000 0000
0927 : 0000 0000
0928 : 0000 0000
0929 : 0000 0000
0930 : 0000 0000
0931 : 0000 0000
0932 : 0000 0000
0933 : 0000 0000
0934 : 0000 0000
0935 : 0000 0000
0936 : 0000 0000
0937 : 0000 0000
0938 : 0000 0000
0939 : 0000 0000
0940 : 0000 0000
0941 : 0000 0000
0942 : 0000 0000
0943 : 0000 0000
0944 : 0000 0000
0945 : 0000 0000
0946 : 0000 0000
0947 : 0000 0000
0948 : 0000 0000
0949 : 0000 0000
0950 : 0000 0000
0951 : 0000 0000
0952 : 0000 0000
0953 : 0000 0000
0954 : 0000 0000
0955 : 0000 0000
0956 : 0000 0000
0957 : 0000 0000
0958 : 0000 0000
0959 : 0000 0000
0960 : 0000 0000
0961 : 0000 0000
0962 : 0000 0000
0963 : 0000 0000
0964 : 0000 0000
0965 : 0000 0000
0966 : 0000 0000
0967 : 0000 0000
0968 : 0000 0000
0969 : 0000 0000
0970 : 0000 0000
0971 : 0000 0000
0972 : 0000 0000
0973 : 0000 0000
0974 : 0000 0000
0975 : 0000 0000
0976 : 0000 0000
0977 : 0000 0000
0978 : 0000 0000
0979 : 0000 0000
0980 : 0000 0000
0981 : 0000 0000
0982 : 0000 0000
0983 : 0000 0000
0984 : 0000 0000
0985 : 0000 0000
0986 : 0000 0000
0987 : 0000 0000
0988 : 0000 0000
0989 : 0000 0000
0990 : 0000 0000
0991 : 0000 0000
0992 : 0000 0000
0993 : 0000 0000
0994 : 0000 0000
0995 : 0000 0000
0996 : 0000 0000
0997 : 0000 0000
0998 : 0000 0000
0999 : 0000 0000
1000 : 0000 0000
1001 : 0000 0000
1002 : 0000 0000
1003 : 0000 0000
1004 : 0000 0000
1005 : 0000 0000
1006 : 0000 0000
1007 : 0000 0000
1008 : 0000 0000
1009 : 0000 0000
1010 : 0000 0000
1011 : 0000 0000
1012 : 0000 0000
1013 : 0000 0000
1014 : 0000 0000
1015 : 0000 0000
1016 : 0000 0000
1017 : 0000 0000
1018 : 0000 0000
1019 : 0000 0000
1020 : 0000 0000
1021 : 0000 0000
1022 : 0000 0000
1023 : 0000 0000
